{"time":"~time~",
"uptime":"~uptime~",
"wlev":"~wlev~",
"vlsys":"~vlsys~",
"vlin":"~vlin~",
"vlbat":"~vlbat~",
"ethstat":"~ethstat~",
"wfstat":"~wfstat~",
"gsmstat":"~gsmstat~",
"lrstat":"~lrstat~",
"mqtt1st":"~mqtt1st~",
"mqtt2st":"~mqtt2st~",
"defadp":"~defadp~",
"freeram":"~freeram~",
"minram":"~minram~",
"fver":"~fver~",
"fverav":"~fverav~",
"updstat":"~updstat~"
}